<svg width="11" height="12" viewBox="0 0 11 12" fill="none" xmlns="http://www.w3.org/2000/svg">
  <rect width="11" height="1.5" rx="0.75" fill="#888888"/>
  <rect width="11" height="1.5" rx="0.75" transform="translate(0 5.14282)" fill="#888888"/>
  <rect width="11" height="1.5" rx="0.75" transform="translate(0 10.2856)" fill="#888888"/>
</svg>
