<svg width="23" height="23" viewBox="0 0 23 23" fill="none" xmlns="http://www.w3.org/2000/svg">
  <path d="M21 10.5012C21 4.71488 16.2851 0 10.4988 0C4.71241 0 0 4.71488 0 10.5012C0 13.6883 1.44598 16.5554 3.69552 18.4826C3.7228 18.5099 3.75008 18.5371 3.80217 18.5619C5.62265 20.0898 7.95406 21 10.526 21C13.0435 21 15.3749 20.0898 17.1954 18.6165C17.302 18.5892 17.3838 18.5099 17.4359 18.428C19.6086 16.4736 21 13.661 21 10.5012ZM0.964799 10.5012C0.964799 5.25062 5.25062 0.964799 10.5012 0.964799C15.7519 0.964799 20.0377 5.25062 20.0377 10.5012C20.0377 13.0732 19.0208 15.4021 17.359 17.1185C17.0912 15.8585 16.2876 13.7156 13.8223 12.3242C14.3853 11.6273 14.7052 10.717 14.7052 9.75224C14.7052 7.4481 12.8302 5.57306 10.526 5.57306C8.22191 5.57306 6.34687 7.4481 6.34687 9.75224C6.34687 10.717 6.69409 11.6 7.22983 12.3242C4.74219 13.7156 3.9386 15.8585 3.69799 17.1185C2.00897 15.4294 0.964799 13.0732 0.964799 10.5012ZM7.28686 9.77701C7.28686 8.00862 8.73284 6.56264 10.5012 6.56264C12.2696 6.56264 13.7156 8.00862 13.7156 9.77701C13.7156 11.5454 12.2696 12.9914 10.5012 12.9914C8.73284 12.9914 7.28686 11.5454 7.28686 9.77701ZM4.55367 17.9469C4.60823 17.1706 5.03482 14.544 7.92925 13.0708C8.65348 13.6338 9.53644 13.9537 10.5012 13.9537C11.466 13.9537 12.3763 13.6065 13.1005 13.0435C15.9676 14.5167 16.4215 17.0887 16.5034 17.9196C14.8689 19.2316 12.7806 20.0352 10.531 20.0352C8.2517 20.0377 6.18814 19.2614 4.55367 17.9469Z" transform="translate(1 1)" fill="#474747" stroke="#474747" stroke-width="0.25"/>
</svg>
