<svg width="12" height="15" viewBox="0 0 12 15" fill="none" xmlns="http://www.w3.org/2000/svg">
    <path d="M11.6255 2.15872H8.81831V1.64988C8.81831 0.740132 8.15257 0 7.33426 0H4.66574C3.84743 0 3.18169 0.740132 3.18169 1.64988V2.15872H0.37448C0.166436 2.15872 0 2.34375 0 2.57504C0 2.80633 0.166436 2.99137 0.37448 2.99137H1.05132V12.7734C1.05132 14.0008 1.95007 15 3.05409 15H8.94591C10.0499 15 10.9487 14.0008 10.9487 12.7734V2.99137H11.6255C11.8336 2.99137 12 2.80633 12 2.57504C12 2.34375 11.8336 2.15872 11.6255 2.15872ZM3.93065 1.64988C3.93065 1.19963 4.26075 0.832648 4.66574 0.832648H7.33426C7.73925 0.832648 8.06935 1.19963 8.06935 1.64988V2.15872H3.93065V1.64988ZM10.1997 12.7734C10.1997 13.5413 9.63662 14.1674 8.94591 14.1674H3.05409C2.36338 14.1674 1.80028 13.5413 1.80028 12.7734V2.99137H10.2025V12.7734H10.1997Z" fill="#888888"/>
    <path d="M5.99997 12.6747C6.20801 12.6747 6.37445 12.4896 6.37445 12.2584V4.90021C6.37445 4.66892 6.20801 4.48389 5.99997 4.48389C5.79192 4.48389 5.62549 4.66892 5.62549 4.90021V12.2553C5.62549 12.4866 5.79192 12.6747 5.99997 12.6747Z" fill="#888888"/>
    <path d="M3.55621 12.2153C3.76426 12.2153 3.93069 12.0303 3.93069 11.799V5.35675C3.93069 5.12546 3.76426 4.94043 3.55621 4.94043C3.34817 4.94043 3.18173 5.12546 3.18173 5.35675V11.799C3.18173 12.0303 3.35094 12.2153 3.55621 12.2153Z" fill="#888888"/>
    <path d="M8.44382 12.2153C8.65186 12.2153 8.8183 12.0303 8.8183 11.799V5.35675C8.8183 5.12546 8.65186 4.94043 8.44382 4.94043C8.23577 4.94043 8.06934 5.12546 8.06934 5.35675V11.799C8.06934 12.0303 8.23577 12.2153 8.44382 12.2153Z" fill="#888888"/>
</svg>